{
    "KPlugin": {
        "Description": "Automatic proxy configuration",
        "Description[ar]": "ضبط آلي للوسيط",
        "Description[az]": "Proxy-nin Avtomatik Ayarlanması",
        "Description[be]": "Аўтаматычная налада проксі",
        "Description[bs]": "Automatska konfiguracija proksija",
        "Description[ca@valencia]": "Configuració automàtica de l'intermediari",
        "Description[ca]": "Configuració automàtica de l'intermediari",
        "Description[cs]": "Automatické nastavení proxy",
        "Description[da]": "Automatisk indstilling af proxy",
        "Description[de]": "Sucht nach einem Proxy-Server und richtet ihn ein",
        "Description[el]": "Αυτόματη διαμόρφωση διαμεσολαβητή",
        "Description[en_GB]": "Automatic proxy configuration",
        "Description[es]": "Configuración automática del proxy",
        "Description[et]": "Automaatne puhverserveri seadistamine",
        "Description[eu]": "Proxyaren konfiguratze automatikoa",
        "Description[fi]": "Automaattiset välityspalvelinasetukset",
        "Description[fr]": "Configuration automatique du serveur mandataire",
        "Description[gd]": "Rèiteachadh fèin-obrachail a' phrogsaidh",
        "Description[gl]": "Configuración automática do proxy",
        "Description[hu]": "Automatikus proxybeállítás",
        "Description[ia]": "Configuration automatic de proxy",
        "Description[id]": "Konfigurasi Proxy Otomatis",
        "Description[is]": "Sjálfvirkar stillingar milliþjóna",
        "Description[it]": "Configurazione automatica del proxy",
        "Description[ka]": "პროქსის ავტომატური მორგება",
        "Description[ko]": "자동 프록시 설정",
        "Description[lt]": "Automatinė įgaliotojo serverio konfigūracija",
        "Description[ml]": "സ്വപ്രേരിത പ്രോക്സി ക്രമീകരണം",
        "Description[my]": "ဆ.သ.ရ-ကွန်ရက်ကြားခံအလိုအလျောက်ပြင်ဆင်ချက်",
        "Description[nl]": "Automatische proxy-configuratie",
        "Description[nn]": "Automatisk mellomtenaroppsett",
        "Description[pl]": "Samoczynnie ustawia pośrednika sieciowego",
        "Description[pt]": "Configuração automática do 'proxy'",
        "Description[pt_BR]": "Configuração automática do proxy",
        "Description[ro]": "Configurare automată proxy",
        "Description[ru]": "Автоматическая настройка прокси-сервера",
        "Description[sk]": "Automatické nastavenie proxy",
        "Description[sl]": "Samodejne nastavitve posredniškega strežnika",
        "Description[sr@ijekavian]": "Аутоматско подешавање проксија",
        "Description[sr@ijekavianlatin]": "Automatsko podešavanje proksija",
        "Description[sr@latin]": "Automatsko podešavanje proksija",
        "Description[sr]": "Аутоматско подешавање проксија",
        "Description[sv]": "Automatisk proxyinställning",
        "Description[ta]": "தானியங்கி பதிலி அமைப்பு",
        "Description[tg]": "Танзимоти прокси ба таври худкор",
        "Description[tok]": "ilo li lon e nasin linja pi kulupu ilo kepeken jan ala",
        "Description[tr]": "Otomatik vekil sunucu yapılandırması",
        "Description[uk]": "Автоматичне налаштовування проксі-сервера",
        "Description[vi]": "Cấu hình uỷ nhiệm tự động",
        "Description[x-test]": "xxAutomatic proxy configurationxx",
        "Description[zh_CN]": "自动代理配置",
        "Description[zh_TW]": "自動代理伺服器組態",
        "Name": "Network Proxy Configuration",
        "Name[ar]": "ضبط وسيط الشبكة",
        "Name[az]": "Şəbəkə Proxy Ayarları",
        "Name[be]": "Налады сеткавага проксі",
        "Name[bs]": "Konfiguracija Mrežnog Proksija",
        "Name[ca@valencia]": "Configuració del servidor intermediari de la xarxa",
        "Name[ca]": "Configuració del servidor intermediari de la xarxa",
        "Name[cs]": "Nastavení proxy sítě",
        "Name[da]": "Indstilling af netværksproxy",
        "Name[de]": "Einrichtung des Netzwerk-Proxy",
        "Name[el]": "Διαμόρφωση διαμεσολαβητή δικτύου",
        "Name[en_GB]": "Network Proxy Configuration",
        "Name[es]": "Configuración del proxy de la red",
        "Name[et]": "Võrgupuhverserveri seadistamine",
        "Name[eu]": "Sarearen konfigurazioa",
        "Name[fi]": "Verkon välityspalvelinasetukset",
        "Name[fr]": "Configuration du serveur mandataire",
        "Name[gd]": "Rèiteachadh progsaidh an lìonraidh",
        "Name[gl]": "Configuración do proxy de rede",
        "Name[hu]": "Hálózati proxybeállítások",
        "Name[ia]": "Configuration de proxy de rete",
        "Name[id]": "Konfigurasi Proxy Jaringan",
        "Name[is]": "Stillingar milliþjóna (proxy)",
        "Name[it]": "Configurazione dei proxy di rete",
        "Name[ka]": "პროქსის მორგება",
        "Name[ko]": "네트워크 프록시 설정",
        "Name[lt]": "Tinklo įgaliotojo serverio konfigūracija",
        "Name[ml]": "നെറ്റ്‌വർക്ക് പ്രോക്സി ക്രമീകരണം",
        "Name[my]": "ဆ.သ.ရ-ကွန်ရက် ကြားခံ ပြင်ဆင်ချက်",
        "Name[nl]": "Configuratie voor netwerk-proxy",
        "Name[nn]": "Oppsett av mellomtenar",
        "Name[pl]": "Ustawienia pośrednika sieciowego",
        "Name[pt]": "Configuração do 'Proxy' de Rede",
        "Name[pt_BR]": "Configuração do proxy de rede",
        "Name[ro]": "Configurare proxy de rețea",
        "Name[ru]": "Настройка прокси-серверов",
        "Name[sk]": "Nastavenie sieťového proxy",
        "Name[sl]": "Nastavitev omrežnega posredniškega strežnika",
        "Name[sr@ijekavian]": "Подешавање мрежног проксија",
        "Name[sr@ijekavianlatin]": "Podešavanje mrežnog proksija",
        "Name[sr@latin]": "Podešavanje mrežnog proksija",
        "Name[sr]": "Подешавање мрежног проксија",
        "Name[sv]": "Inställning av nätverksproxy",
        "Name[ta]": "பிணைய பதிலி அமைப்பு",
        "Name[tg]": "Танзимоти шабакаи прокси",
        "Name[tok]": "nasin linja pi kulupu ilo",
        "Name[tr]": "Ağ Vekil Sunucu Yapılandırması",
        "Name[uk]": "Налаштовування проксі-сервера мережі",
        "Name[vi]": "Cấu hình uỷ nhiệm mạng",
        "Name[x-test]": "xxNetwork Proxy Configurationxx",
        "Name[zh_CN]": "网络代理配置",
        "Name[zh_TW]": "網路代理組態",
        "ServiceTypes": [
            "KDEDModule"
        ]
    },
    "X-KDE-Kded-autoload": true,
    "X-KDE-Kded-load-on-demand": false
}
